^C:\PROJECTS\CPP\STOMICSIMPOZIJ\STOMICSIMPOZIJ\SRC\ALGORITHM.CPP
C:\PROJECTS\CPP\STOMICSIMPOZIJ\STOMICSIMPOZIJ\SRC\ALGORITHM.H
C:\PROGRAM FILES (X86)\MICROSOFT VISUAL STUDIO\2019\COMMUNITY\VC\TOOLS\MSVC\14.23.28105\INCLUDE\STRING
C:\PROGRAM FILES (X86)\MICROSOFT VISUAL STUDIO\2019\COMMUNITY\VC\TOOLS\MSVC\14.23.28105\INCLUDE\YVALS_CORE.H
C:\PROGRAM FILES (X86)\MICROSOFT VISUAL STUDIO\2019\COMMUNITY\VC\TOOLS\MSVC\14.23.28105\INCLUDE\CRTDEFS.H
C:\PROGRAM FILES (X86)\MICROSOFT VISUAL STUDIO\2019\COMMUNITY\VC\TOOLS\MSVC\14.23.28105\INCLUDE\VCRUNTIME.H
C:\PROGRAM FILES (X86)\MICROSOFT VISUAL STUDIO\2019\COMMUNITY\VC\TOOLS\MSVC\14.23.28105\INCLUDE\SAL.H
C:\PROGRAM FILES (X86)\MICROSOFT VISUAL STUDIO\2019\COMMUNITY\VC\TOOLS\MSVC\14.23.28105\INCLUDE\CONCURRENCYSAL.H
C:\PROGRAM FILES (X86)\MICROSOFT VISUAL STUDIO\2019\COMMUNITY\VC\TOOLS\MSVC\14.23.28105\INCLUDE\VADEFS.H
C:\PROGRAM FILES (X86)\WINDOWS KITS\10\INCLUDE\10.0.18362.0\UCRT\CORECRT.H
C:\PROGRAM FILES (X86)\MICROSOFT VISUAL STUDIO\2019\COMMUNITY\VC\TOOLS\MSVC\14.23.28105\INCLUDE\XKEYCHECK.H
C:\PROGRAM FILES (X86)\MICROSOFT VISUAL STUDIO\2019\COMMUNITY\VC\TOOLS\MSVC\14.23.28105\INCLUDE\XSTRING
C:\PROGRAM FILES (X86)\MICROSOFT VISUAL STUDIO\2019\COMMUNITY\VC\TOOLS\MSVC\14.23.28105\INCLUDE\IOSFWD
C:\PROGRAM FILES (X86)\MICROSOFT VISUAL STUDIO\2019\COMMUNITY\VC\TOOLS\MSVC\14.23.28105\INCLUDE\YVALS.H
C:\PROGRAM FILES (X86)\WINDOWS KITS\10\INCLUDE\10.0.18362.0\UCRT\CRTDBG.H
C:\PROGRAM FILES (X86)\MICROSOFT VISUAL STUDIO\2019\COMMUNITY\VC\TOOLS\MSVC\14.23.28105\INCLUDE\VCRUNTIME_NEW_DEBUG.H
C:\PROGRAM FILES (X86)\MICROSOFT VISUAL STUDIO\2019\COMMUNITY\VC\TOOLS\MSVC\14.23.28105\INCLUDE\VCRUNTIME_NEW.H
C:\PROGRAM FILES (X86)\MICROSOFT VISUAL STUDIO\2019\COMMUNITY\VC\TOOLS\MSVC\14.23.28105\INCLUDE\USE_ANSI.H
C:\PROGRAM FILES (X86)\MICROSOFT VISUAL STUDIO\2019\COMMUNITY\VC\TOOLS\MSVC\14.23.28105\INCLUDE\CSTDIO
C:\PROGRAM FILES (X86)\WINDOWS KITS\10\INCLUDE\10.0.18362.0\UCRT\STDIO.H
C:\PROGRAM FILES (X86)\WINDOWS KITS\10\INCLUDE\10.0.18362.0\UCRT\CORECRT_WSTDIO.H
C:\PROGRAM FILES (X86)\WINDOWS KITS\10\INCLUDE\10.0.18362.0\UCRT\CORECRT_STDIO_CONFIG.H
C:\PROGRAM FILES (X86)\MICROSOFT VISUAL STUDIO\2019\COMMUNITY\VC\TOOLS\MSVC\14.23.28105\INCLUDE\CSTRING
C:\PROGRAM FILES (X86)\WINDOWS KITS\10\INCLUDE\10.0.18362.0\UCRT\STRING.H
C:\PROGRAM FILES (X86)\WINDOWS KITS\10\INCLUDE\10.0.18362.0\UCRT\CORECRT_MEMORY.H
C:\PROGRAM FILES (X86)\WINDOWS KITS\10\INCLUDE\10.0.18362.0\UCRT\CORECRT_MEMCPY_S.H
C:\PROGRAM FILES (X86)\WINDOWS KITS\10\INCLUDE\10.0.18362.0\UCRT\ERRNO.H
C:\PROGRAM FILES (X86)\MICROSOFT VISUAL STUDIO\2019\COMMUNITY\VC\TOOLS\MSVC\14.23.28105\INCLUDE\VCRUNTIME_STRING.H
C:\PROGRAM FILES (X86)\WINDOWS KITS\10\INCLUDE\10.0.18362.0\UCRT\CORECRT_WSTRING.H
C:\PROGRAM FILES (X86)\MICROSOFT VISUAL STUDIO\2019\COMMUNITY\VC\TOOLS\MSVC\14.23.28105\INCLUDE\CWCHAR
C:\PROGRAM FILES (X86)\WINDOWS KITS\10\INCLUDE\10.0.18362.0\UCRT\WCHAR.H
C:\PROGRAM FILES (X86)\WINDOWS KITS\10\INCLUDE\10.0.18362.0\UCRT\CORECRT_WCONIO.H
C:\PROGRAM FILES (X86)\WINDOWS KITS\10\INCLUDE\10.0.18362.0\UCRT\CORECRT_WCTYPE.H
C:\PROGRAM FILES (X86)\WINDOWS KITS\10\INCLUDE\10.0.18362.0\UCRT\CORECRT_WDIRECT.H
C:\PROGRAM FILES (X86)\WINDOWS KITS\10\INCLUDE\10.0.18362.0\UCRT\CORECRT_WIO.H
C:\PROGRAM FILES (X86)\WINDOWS KITS\10\INCLUDE\10.0.18362.0\UCRT\CORECRT_SHARE.H
C:\PROGRAM FILES (X86)\WINDOWS KITS\10\INCLUDE\10.0.18362.0\UCRT\CORECRT_WPROCESS.H
C:\PROGRAM FILES (X86)\WINDOWS KITS\10\INCLUDE\10.0.18362.0\UCRT\CORECRT_WSTDLIB.H
C:\PROGRAM FILES (X86)\WINDOWS KITS\10\INCLUDE\10.0.18362.0\UCRT\CORECRT_WTIME.H
C:\PROGRAM FILES (X86)\WINDOWS KITS\10\INCLUDE\10.0.18362.0\UCRT\SYS\STAT.H
C:\PROGRAM FILES (X86)\WINDOWS KITS\10\INCLUDE\10.0.18362.0\UCRT\SYS\TYPES.H
C:\PROGRAM FILES (X86)\MICROSOFT VISUAL STUDIO\2019\COMMUNITY\VC\TOOLS\MSVC\14.23.28105\INCLUDE\XSTDDEF
C:\PROGRAM FILES (X86)\MICROSOFT VISUAL STUDIO\2019\COMMUNITY\VC\TOOLS\MSVC\14.23.28105\INCLUDE\CSTDDEF
C:\PROGRAM FILES (X86)\WINDOWS KITS\10\INCLUDE\10.0.18362.0\UCRT\STDDEF.H
C:\PROGRAM FILES (X86)\MICROSOFT VISUAL STUDIO\2019\COMMUNITY\VC\TOOLS\MSVC\14.23.28105\INCLUDE\XTR1COMMON
C:\PROGRAM FILES (X86)\MICROSOFT VISUAL STUDIO\2019\COMMUNITY\VC\TOOLS\MSVC\14.23.28105\INCLUDE\CSTDLIB
C:\PROGRAM FILES (X86)\WINDOWS KITS\10\INCLUDE\10.0.18362.0\UCRT\MATH.H
C:\PROGRAM FILES (X86)\WINDOWS KITS\10\INCLUDE\10.0.18362.0\UCRT\CORECRT_MATH.H
C:\PROGRAM FILES (X86)\WINDOWS KITS\10\INCLUDE\10.0.18362.0\UCRT\STDLIB.H
C:\PROGRAM FILES (X86)\WINDOWS KITS\10\INCLUDE\10.0.18362.0\UCRT\CORECRT_MALLOC.H
C:\PROGRAM FILES (X86)\WINDOWS KITS\10\INCLUDE\10.0.18362.0\UCRT\CORECRT_SEARCH.H
C:\PROGRAM FILES (X86)\MICROSOFT VISUAL STUDIO\2019\COMMUNITY\VC\TOOLS\MSVC\14.23.28105\INCLUDE\LIMITS.H
C:\PROGRAM FILES (X86)\MICROSOFT VISUAL STUDIO\2019\COMMUNITY\VC\TOOLS\MSVC\14.23.28105\INCLUDE\INITIALIZER_LIST
C:\PROGRAM FILES (X86)\MICROSOFT VISUAL STUDIO\2019\COMMUNITY\VC\TOOLS\MSVC\14.23.28105\INCLUDE\XMEMORY
C:\PROGRAM FILES (X86)\MICROSOFT VISUAL STUDIO\2019\COMMUNITY\VC\TOOLS\MSVC\14.23.28105\INCLUDE\CSTDINT
C:\PROGRAM FILES (X86)\MICROSOFT VISUAL STUDIO\2019\COMMUNITY\VC\TOOLS\MSVC\14.23.28105\INCLUDE\STDINT.H
C:\PROGRAM FILES (X86)\MICROSOFT VISUAL STUDIO\2019\COMMUNITY\VC\TOOLS\MSVC\14.23.28105\INCLUDE\LIMITS
C:\PROGRAM FILES (X86)\MICROSOFT VISUAL STUDIO\2019\COMMUNITY\VC\TOOLS\MSVC\14.23.28105\INCLUDE\CFLOAT
C:\PROGRAM FILES (X86)\WINDOWS KITS\10\INCLUDE\10.0.18362.0\UCRT\FLOAT.H
C:\PROGRAM FILES (X86)\MICROSOFT VISUAL STUDIO\2019\COMMUNITY\VC\TOOLS\MSVC\14.23.28105\INCLUDE\CLIMITS
C:\PROGRAM FILES (X86)\MICROSOFT VISUAL STUDIO\2019\COMMUNITY\VC\TOOLS\MSVC\14.23.28105\INCLUDE\NEW
C:\PROGRAM FILES (X86)\MICROSOFT VISUAL STUDIO\2019\COMMUNITY\VC\TOOLS\MSVC\14.23.28105\INCLUDE\EXCEPTION
C:\PROGRAM FILES (X86)\MICROSOFT VISUAL STUDIO\2019\COMMUNITY\VC\TOOLS\MSVC\14.23.28105\INCLUDE\TYPE_TRAITS
C:\PROGRAM FILES (X86)\WINDOWS KITS\10\INCLUDE\10.0.18362.0\UCRT\MALLOC.H
C:\PROGRAM FILES (X86)\MICROSOFT VISUAL STUDIO\2019\COMMUNITY\VC\TOOLS\MSVC\14.23.28105\INCLUDE\VCRUNTIME_EXCEPTION.H
C:\PROGRAM FILES (X86)\MICROSOFT VISUAL STUDIO\2019\COMMUNITY\VC\TOOLS\MSVC\14.23.28105\INCLUDE\EH.H
C:\PROGRAM FILES (X86)\WINDOWS KITS\10\INCLUDE\10.0.18362.0\UCRT\CORECRT_TERMINATE.H
C:\PROGRAM FILES (X86)\MICROSOFT VISUAL STUDIO\2019\COMMUNITY\VC\TOOLS\MSVC\14.23.28105\INCLUDE\XATOMIC.H
C:\PROGRAM FILES (X86)\MICROSOFT VISUAL STUDIO\2019\COMMUNITY\VC\TOOLS\MSVC\14.23.28105\INCLUDE\INTRIN0.H
C:\PROGRAM FILES (X86)\MICROSOFT VISUAL STUDIO\2019\COMMUNITY\VC\TOOLS\MSVC\14.23.28105\INCLUDE\XUTILITY
C:\PROGRAM FILES (X86)\MICROSOFT VISUAL STUDIO\2019\COMMUNITY\VC\TOOLS\MSVC\14.23.28105\INCLUDE\UTILITY
C:\PROGRAM FILES (X86)\MICROSOFT VISUAL STUDIO\2019\COMMUNITY\VC\TOOLS\MSVC\14.23.28105\INCLUDE\CCTYPE
C:\PROGRAM FILES (X86)\WINDOWS KITS\10\INCLUDE\10.0.18362.0\UCRT\CTYPE.H
C:\PROGRAM FILES (X86)\MICROSOFT VISUAL STUDIO\2019\COMMUNITY\VC\TOOLS\MSVC\14.23.28105\INCLUDE\VECTOR
C:\PROGRAM FILES (X86)\MICROSOFT VISUAL STUDIO\2019\COMMUNITY\VC\TOOLS\MSVC\14.23.28105\INCLUDE\ARRAY
C:\PROGRAM FILES (X86)\MICROSOFT VISUAL STUDIO\2019\COMMUNITY\VC\TOOLS\MSVC\14.23.28105\INCLUDE\ALGORITHM
C:\PROGRAM FILES (X86)\MICROSOFT VISUAL STUDIO\2019\COMMUNITY\VC\TOOLS\MSVC\14.23.28105\INCLUDE\ITERATOR
C:\PROGRAM FILES (X86)\MICROSOFT VISUAL STUDIO\2019\COMMUNITY\VC\TOOLS\MSVC\14.23.28105\INCLUDE\ISTREAM
C:\PROGRAM FILES (X86)\MICROSOFT VISUAL STUDIO\2019\COMMUNITY\VC\TOOLS\MSVC\14.23.28105\INCLUDE\OSTREAM
C:\PROGRAM FILES (X86)\MICROSOFT VISUAL STUDIO\2019\COMMUNITY\VC\TOOLS\MSVC\14.23.28105\INCLUDE\IOS
C:\PROGRAM FILES (X86)\MICROSOFT VISUAL STUDIO\2019\COMMUNITY\VC\TOOLS\MSVC\14.23.28105\INCLUDE\XLOCNUM
C:\PROGRAM FILES (X86)\MICROSOFT VISUAL STUDIO\2019\COMMUNITY\VC\TOOLS\MSVC\14.23.28105\INCLUDE\CMATH
C:\PROGRAM FILES (X86)\MICROSOFT VISUAL STUDIO\2019\COMMUNITY\VC\TOOLS\MSVC\14.23.28105\INCLUDE\XTGMATH.H
C:\PROGRAM FILES (X86)\MICROSOFT VISUAL STUDIO\2019\COMMUNITY\VC\TOOLS\MSVC\14.23.28105\INCLUDE\STREAMBUF
C:\PROGRAM FILES (X86)\MICROSOFT VISUAL STUDIO\2019\COMMUNITY\VC\TOOLS\MSVC\14.23.28105\INCLUDE\XIOSBASE
C:\PROGRAM FILES (X86)\WINDOWS KITS\10\INCLUDE\10.0.18362.0\UCRT\SHARE.H
C:\PROGRAM FILES (X86)\MICROSOFT VISUAL STUDIO\2019\COMMUNITY\VC\TOOLS\MSVC\14.23.28105\INCLUDE\SYSTEM_ERROR
C:\PROGRAM FILES (X86)\MICROSOFT VISUAL STUDIO\2019\COMMUNITY\VC\TOOLS\MSVC\14.23.28105\INCLUDE\CERRNO
C:\PROGRAM FILES (X86)\MICROSOFT VISUAL STUDIO\2019\COMMUNITY\VC\TOOLS\MSVC\14.23.28105\INCLUDE\STDEXCEPT
C:\PROGRAM FILES (X86)\MICROSOFT VISUAL STUDIO\2019\COMMUNITY\VC\TOOLS\MSVC\14.23.28105\INCLUDE\XCALL_ONCE.H
C:\PROGRAM FILES (X86)\MICROSOFT VISUAL STUDIO\2019\COMMUNITY\VC\TOOLS\MSVC\14.23.28105\INCLUDE\XERRC.H
C:\PROGRAM FILES (X86)\MICROSOFT VISUAL STUDIO\2019\COMMUNITY\VC\TOOLS\MSVC\14.23.28105\INCLUDE\XLOCALE
C:\PROGRAM FILES (X86)\MICROSOFT VISUAL STUDIO\2019\COMMUNITY\VC\TOOLS\MSVC\14.23.28105\INCLUDE\MEMORY
C:\PROGRAM FILES (X86)\MICROSOFT VISUAL STUDIO\2019\COMMUNITY\VC\TOOLS\MSVC\14.23.28105\INCLUDE\TYPEINFO
C:\PROGRAM FILES (X86)\MICROSOFT VISUAL STUDIO\2019\COMMUNITY\VC\TOOLS\MSVC\14.23.28105\INCLUDE\VCRUNTIME_TYPEINFO.H
C:\PROGRAM FILES (X86)\MICROSOFT VISUAL STUDIO\2019\COMMUNITY\VC\TOOLS\MSVC\14.23.28105\INCLUDE\XFACET
C:\PROGRAM FILES (X86)\MICROSOFT VISUAL STUDIO\2019\COMMUNITY\VC\TOOLS\MSVC\14.23.28105\INCLUDE\XLOCINFO
C:\PROGRAM FILES (X86)\MICROSOFT VISUAL STUDIO\2019\COMMUNITY\VC\TOOLS\MSVC\14.23.28105\INCLUDE\XLOCINFO.H
C:\PROGRAM FILES (X86)\WINDOWS KITS\10\INCLUDE\10.0.18362.0\UCRT\LOCALE.H
C:\PROGRAM FILES (X86)\MICROSOFT VISUAL STUDIO\2019\COMMUNITY\VC\TOOLS\MSVC\14.23.28105\INCLUDE\TUPLE
C:\PROGRAM FILES (X86)\MICROSOFT VISUAL STUDIO\2019\COMMUNITY\VC\TOOLS\MSVC\14.23.28105\INCLUDE\MAP
C:\PROGRAM FILES (X86)\MICROSOFT VISUAL STUDIO\2019\COMMUNITY\VC\TOOLS\MSVC\14.23.28105\INCLUDE\XTREE
C:\PROGRAM FILES (X86)\MICROSOFT VISUAL STUDIO\2019\COMMUNITY\VC\TOOLS\MSVC\14.23.28105\INCLUDE\SET
C:\PROJECTS\CPP\UTIL\INCLUDE\GENETIC_ALGORITHM\GENERAL_GA.H
C:\PROJECTS\CPP\UTIL\INCLUDE\GENETIC_ALGORITHM\GENETIC_ALGORITHM.H
C:\PROJECTS\CPP\UTIL\INCLUDE\GENETIC_ALGORITHM\SOLUTION.H
C:\PROJECTS\CPP\UTIL\INCLUDE\GENETIC_ALGORITHM\EVALUATOR.H
C:\PROJECTS\CPP\UTIL\INCLUDE\GENETIC_ALGORITHM\CROSSOVER.H
C:\PROJECTS\CPP\UTIL\INCLUDE\RANDOM.H
C:\PROGRAM FILES (X86)\MICROSOFT VISUAL STUDIO\2019\COMMUNITY\VC\TOOLS\MSVC\14.23.28105\INCLUDE\RANDOM
C:\PROGRAM FILES (X86)\MICROSOFT VISUAL STUDIO\2019\COMMUNITY\VC\TOOLS\MSVC\14.23.28105\INCLUDE\CHRONO
C:\PROGRAM FILES (X86)\MICROSOFT VISUAL STUDIO\2019\COMMUNITY\VC\TOOLS\MSVC\14.23.28105\INCLUDE\RATIO
C:\PROGRAM FILES (X86)\MICROSOFT VISUAL STUDIO\2019\COMMUNITY\VC\TOOLS\MSVC\14.23.28105\INCLUDE\THR\XTIMEC.H
C:\PROGRAM FILES (X86)\WINDOWS KITS\10\INCLUDE\10.0.18362.0\UCRT\TIME.H
C:\PROJECTS\CPP\UTIL\INCLUDE\GENETIC_ALGORITHM\MUTATION.H
C:\PROJECTS\CPP\UTIL\INCLUDE\GENETIC_ALGORITHM\SELECTION.H
C:\PROGRAM FILES (X86)\WINDOWS KITS\10\INCLUDE\10.0.18362.0\UCRT\ASSERT.H
C:\PROGRAM FILES (X86)\MICROSOFT VISUAL STUDIO\2019\COMMUNITY\VC\TOOLS\MSVC\14.23.28105\INCLUDE\IOSTREAM
C:\PROJECTS\CPP\UTIL\INCLUDE\UTIL_STRING.H
C:\PROGRAM FILES (X86)\MICROSOFT VISUAL STUDIO\2019\COMMUNITY\VC\TOOLS\MSVC\14.23.28105\INCLUDE\CODECVT
C:\PROGRAM FILES (X86)\MICROSOFT VISUAL STUDIO\2019\COMMUNITY\VC\TOOLS\MSVC\14.23.28105\INCLUDE\LOCALE
C:\PROGRAM FILES (X86)\MICROSOFT VISUAL STUDIO\2019\COMMUNITY\VC\TOOLS\MSVC\14.23.28105\INCLUDE\XLOCBUF
C:\PROGRAM FILES (X86)\MICROSOFT VISUAL STUDIO\2019\COMMUNITY\VC\TOOLS\MSVC\14.23.28105\INCLUDE\XLOCMES
C:\PROGRAM FILES (X86)\MICROSOFT VISUAL STUDIO\2019\COMMUNITY\VC\TOOLS\MSVC\14.23.28105\INCLUDE\XLOCMON
C:\PROGRAM FILES (X86)\MICROSOFT VISUAL STUDIO\2019\COMMUNITY\VC\TOOLS\MSVC\14.23.28105\INCLUDE\XLOCTIME
C:\PROGRAM FILES (X86)\MICROSOFT VISUAL STUDIO\2019\COMMUNITY\VC\TOOLS\MSVC\14.23.28105\INCLUDE\CTIME
C:\PROGRAM FILES (X86)\MICROSOFT VISUAL STUDIO\2019\COMMUNITY\VC\TOOLS\MSVC\14.23.28105\INCLUDE\FSTREAM
C:\PROGRAM FILES (X86)\MICROSOFT VISUAL STUDIO\2019\COMMUNITY\VC\TOOLS\MSVC\14.23.28105\INCLUDE\SSTREAM
D:\SOURCE\BOOST_1_61_0\BOOST\ALGORITHM\STRING.HPP
D:\SOURCE\BOOST_1_61_0\BOOST\ALGORITHM\STRING\STD_CONTAINERS_TRAITS.HPP
D:\SOURCE\BOOST_1_61_0\BOOST\CONFIG.HPP
D:\SOURCE\BOOST_1_61_0\BOOST\CONFIG\USER.HPP
D:\SOURCE\BOOST_1_61_0\BOOST\CONFIG\SELECT_COMPILER_CONFIG.HPP
D:\SOURCE\BOOST_1_61_0\BOOST\CONFIG\COMPILER\VISUALC.HPP
D:\SOURCE\BOOST_1_61_0\BOOST\CONFIG\SELECT_STDLIB_CONFIG.HPP
D:\SOURCE\BOOST_1_61_0\BOOST\CONFIG\STDLIB\DINKUMWARE.HPP
D:\SOURCE\BOOST_1_61_0\BOOST\CONFIG\SELECT_PLATFORM_CONFIG.HPP
D:\SOURCE\BOOST_1_61_0\BOOST\CONFIG\PLATFORM\WIN32.HPP
D:\SOURCE\BOOST_1_61_0\BOOST\CONFIG\SUFFIX.HPP
D:\SOURCE\BOOST_1_61_0\BOOST\ALGORITHM\STRING\STD\STRING_TRAITS.HPP
D:\SOURCE\BOOST_1_61_0\BOOST\ALGORITHM\STRING\YES_NO_TYPE.HPP
D:\SOURCE\BOOST_1_61_0\BOOST\ALGORITHM\STRING\SEQUENCE_TRAITS.HPP
D:\SOURCE\BOOST_1_61_0\BOOST\MPL\BOOL.HPP
D:\SOURCE\BOOST_1_61_0\BOOST\MPL\BOOL_FWD.HPP
D:\SOURCE\BOOST_1_61_0\BOOST\MPL\AUX_\ADL_BARRIER.HPP
D:\SOURCE\BOOST_1_61_0\BOOST\MPL\AUX_\CONFIG\ADL.HPP
D:\SOURCE\BOOST_1_61_0\BOOST\MPL\AUX_\CONFIG\MSVC.HPP
D:\SOURCE\BOOST_1_61_0\BOOST\MPL\AUX_\CONFIG\INTEL.HPP
D:\SOURCE\BOOST_1_61_0\BOOST\MPL\AUX_\CONFIG\GCC.HPP
D:\SOURCE\BOOST_1_61_0\BOOST\MPL\AUX_\CONFIG\WORKAROUND.HPP
D:\SOURCE\BOOST_1_61_0\BOOST\DETAIL\WORKAROUND.HPP
D:\SOURCE\BOOST_1_61_0\BOOST\MPL\INTEGRAL_C_TAG.HPP
D:\SOURCE\BOOST_1_61_0\BOOST\MPL\AUX_\CONFIG\STATIC_CONSTANT.HPP
D:\SOURCE\BOOST_1_61_0\BOOST\ALGORITHM\STRING\STD\LIST_TRAITS.HPP
C:\PROGRAM FILES (X86)\MICROSOFT VISUAL STUDIO\2019\COMMUNITY\VC\TOOLS\MSVC\14.23.28105\INCLUDE\LIST
D:\SOURCE\BOOST_1_61_0\BOOST\ALGORITHM\STRING\TRIM.HPP
D:\SOURCE\BOOST_1_61_0\BOOST\ALGORITHM\STRING\CONFIG.HPP
D:\SOURCE\BOOST_1_61_0\BOOST\RANGE\BEGIN.HPP
D:\SOURCE\BOOST_1_61_0\BOOST\RANGE\CONFIG.HPP
D:\SOURCE\BOOST_1_61_0\BOOST\RANGE\ITERATOR.HPP
D:\SOURCE\BOOST_1_61_0\BOOST\RANGE\RANGE_FWD.HPP
D:\SOURCE\BOOST_1_61_0\BOOST\RANGE\MUTABLE_ITERATOR.HPP
D:\SOURCE\BOOST_1_61_0\BOOST\RANGE\DETAIL\EXTRACT_OPTIONAL_TYPE.HPP
D:\SOURCE\BOOST_1_61_0\BOOST\PREPROCESSOR\CAT.HPP
D:\SOURCE\BOOST_1_61_0\BOOST\PREPROCESSOR\CONFIG\CONFIG.HPP
D:\SOURCE\BOOST_1_61_0\BOOST\MPL\HAS_XXX.HPP
D:\SOURCE\BOOST_1_61_0\BOOST\MPL\AUX_\NA_SPEC.HPP
D:\SOURCE\BOOST_1_61_0\BOOST\MPL\LAMBDA_FWD.HPP
D:\SOURCE\BOOST_1_61_0\BOOST\MPL\VOID_FWD.HPP
D:\SOURCE\BOOST_1_61_0\BOOST\MPL\AUX_\NA.HPP
D:\SOURCE\BOOST_1_61_0\BOOST\MPL\AUX_\NA_FWD.HPP
D:\SOURCE\BOOST_1_61_0\BOOST\MPL\AUX_\CONFIG\CTPS.HPP
D:\SOURCE\BOOST_1_61_0\BOOST\MPL\AUX_\CONFIG\LAMBDA.HPP
D:\SOURCE\BOOST_1_61_0\BOOST\MPL\AUX_\CONFIG\TTP.HPP
D:\SOURCE\BOOST_1_61_0\BOOST\MPL\INT.HPP
D:\SOURCE\BOOST_1_61_0\BOOST\MPL\INT_FWD.HPP
D:\SOURCE\BOOST_1_61_0\BOOST\MPL\AUX_\NTTP_DECL.HPP
D:\SOURCE\BOOST_1_61_0\BOOST\MPL\AUX_\CONFIG\NTTP.HPP
D:\SOURCE\BOOST_1_61_0\BOOST\MPL\AUX_\INTEGRAL_WRAPPER.HPP
D:\SOURCE\BOOST_1_61_0\BOOST\MPL\AUX_\STATIC_CAST.HPP
D:\SOURCE\BOOST_1_61_0\BOOST\MPL\AUX_\LAMBDA_ARITY_PARAM.HPP
D:\SOURCE\BOOST_1_61_0\BOOST\MPL\AUX_\TEMPLATE_ARITY_FWD.HPP
D:\SOURCE\BOOST_1_61_0\BOOST\MPL\AUX_\ARITY.HPP
D:\SOURCE\BOOST_1_61_0\BOOST\MPL\AUX_\CONFIG\DTP.HPP
D:\SOURCE\BOOST_1_61_0\BOOST\MPL\AUX_\PREPROCESSOR\PARAMS.HPP
D:\SOURCE\BOOST_1_61_0\BOOST\MPL\AUX_\CONFIG\PREPROCESSOR.HPP
D:\SOURCE\BOOST_1_61_0\BOOST\PREPROCESSOR\COMMA_IF.HPP
D:\SOURCE\BOOST_1_61_0\BOOST\PREPROCESSOR\PUNCTUATION\COMMA_IF.HPP
D:\SOURCE\BOOST_1_61_0\BOOST\PREPROCESSOR\CONTROL\IF.HPP
D:\SOURCE\BOOST_1_61_0\BOOST\PREPROCESSOR\CONTROL\IIF.HPP
D:\SOURCE\BOOST_1_61_0\BOOST\PREPROCESSOR\LOGICAL\BOOL.HPP
D:\SOURCE\BOOST_1_61_0\BOOST\PREPROCESSOR\FACILITIES\EMPTY.HPP
D:\SOURCE\BOOST_1_61_0\BOOST\PREPROCESSOR\PUNCTUATION\COMMA.HPP
D:\SOURCE\BOOST_1_61_0\BOOST\PREPROCESSOR\REPEAT.HPP
D:\SOURCE\BOOST_1_61_0\BOOST\PREPROCESSOR\REPETITION\REPEAT.HPP
D:\SOURCE\BOOST_1_61_0\BOOST\PREPROCESSOR\DEBUG\ERROR.HPP
D:\SOURCE\BOOST_1_61_0\BOOST\PREPROCESSOR\DETAIL\AUTO_REC.HPP
D:\SOURCE\BOOST_1_61_0\BOOST\PREPROCESSOR\TUPLE\EAT.HPP
D:\SOURCE\BOOST_1_61_0\BOOST\PREPROCESSOR\INC.HPP
D:\SOURCE\BOOST_1_61_0\BOOST\PREPROCESSOR\ARITHMETIC\INC.HPP
D:\SOURCE\BOOST_1_61_0\BOOST\MPL\AUX_\PREPROCESSOR\ENUM.HPP
D:\SOURCE\BOOST_1_61_0\BOOST\MPL\AUX_\PREPROCESSOR\DEF_PARAMS_TAIL.HPP
D:\SOURCE\BOOST_1_61_0\BOOST\MPL\LIMITS\ARITY.HPP
D:\SOURCE\BOOST_1_61_0\BOOST\PREPROCESSOR\LOGICAL\AND.HPP
D:\SOURCE\BOOST_1_61_0\BOOST\PREPROCESSOR\LOGICAL\BITAND.HPP
D:\SOURCE\BOOST_1_61_0\BOOST\PREPROCESSOR\IDENTITY.HPP
D:\SOURCE\BOOST_1_61_0\BOOST\PREPROCESSOR\FACILITIES\IDENTITY.HPP
D:\SOURCE\BOOST_1_61_0\BOOST\PREPROCESSOR\EMPTY.HPP
D:\SOURCE\BOOST_1_61_0\BOOST\PREPROCESSOR\ARITHMETIC\ADD.HPP
D:\SOURCE\BOOST_1_61_0\BOOST\PREPROCESSOR\ARITHMETIC\DEC.HPP
D:\SOURCE\BOOST_1_61_0\BOOST\PREPROCESSOR\CONTROL\WHILE.HPP
D:\SOURCE\BOOST_1_61_0\BOOST\PREPROCESSOR\LIST\FOLD_LEFT.HPP
D:\SOURCE\BOOST_1_61_0\BOOST\PREPROCESSOR\LIST\DETAIL\FOLD_LEFT.HPP
D:\SOURCE\BOOST_1_61_0\BOOST\PREPROCESSOR\CONTROL\EXPR_IIF.HPP
D:\SOURCE\BOOST_1_61_0\BOOST\PREPROCESSOR\LIST\ADT.HPP
D:\SOURCE\BOOST_1_61_0\BOOST\PREPROCESSOR\DETAIL\IS_BINARY.HPP
D:\SOURCE\BOOST_1_61_0\BOOST\PREPROCESSOR\DETAIL\CHECK.HPP
D:\SOURCE\BOOST_1_61_0\BOOST\PREPROCESSOR\LOGICAL\COMPL.HPP
D:\SOURCE\BOOST_1_61_0\BOOST\PREPROCESSOR\LIST\FOLD_RIGHT.HPP
D:\SOURCE\BOOST_1_61_0\BOOST\PREPROCESSOR\LIST\DETAIL\FOLD_RIGHT.HPP
D:\SOURCE\BOOST_1_61_0\BOOST\PREPROCESSOR\LIST\REVERSE.HPP
D:\SOURCE\BOOST_1_61_0\BOOST\PREPROCESSOR\CONTROL\DETAIL\MSVC\WHILE.HPP
D:\SOURCE\BOOST_1_61_0\BOOST\PREPROCESSOR\TUPLE\ELEM.HPP
D:\SOURCE\BOOST_1_61_0\BOOST\PREPROCESSOR\FACILITIES\EXPAND.HPP
D:\SOURCE\BOOST_1_61_0\BOOST\PREPROCESSOR\FACILITIES\OVERLOAD.HPP
D:\SOURCE\BOOST_1_61_0\BOOST\PREPROCESSOR\VARIADIC\SIZE.HPP
D:\SOURCE\BOOST_1_61_0\BOOST\PREPROCESSOR\TUPLE\REM.HPP
D:\SOURCE\BOOST_1_61_0\BOOST\PREPROCESSOR\TUPLE\DETAIL\IS_SINGLE_RETURN.HPP
D:\SOURCE\BOOST_1_61_0\BOOST\PREPROCESSOR\FACILITIES\IS_1.HPP
D:\SOURCE\BOOST_1_61_0\BOOST\PREPROCESSOR\FACILITIES\IS_EMPTY.HPP
D:\SOURCE\BOOST_1_61_0\BOOST\PREPROCESSOR\FACILITIES\IS_EMPTY_VARIADIC.HPP
D:\SOURCE\BOOST_1_61_0\BOOST\PREPROCESSOR\PUNCTUATION\IS_BEGIN_PARENS.HPP
D:\SOURCE\BOOST_1_61_0\BOOST\PREPROCESSOR\PUNCTUATION\DETAIL\IS_BEGIN_PARENS.HPP
D:\SOURCE\BOOST_1_61_0\BOOST\PREPROCESSOR\FACILITIES\DETAIL\IS_EMPTY.HPP
D:\SOURCE\BOOST_1_61_0\BOOST\PREPROCESSOR\TUPLE\SIZE.HPP
D:\SOURCE\BOOST_1_61_0\BOOST\PREPROCESSOR\VARIADIC\ELEM.HPP
D:\SOURCE\BOOST_1_61_0\BOOST\PREPROCESSOR\ARITHMETIC\SUB.HPP
D:\SOURCE\BOOST_1_61_0\BOOST\MPL\AUX_\CONFIG\ETI.HPP
D:\SOURCE\BOOST_1_61_0\BOOST\MPL\AUX_\CONFIG\OVERLOAD_RESOLUTION.HPP
D:\SOURCE\BOOST_1_61_0\BOOST\MPL\AUX_\TYPE_WRAPPER.HPP
D:\SOURCE\BOOST_1_61_0\BOOST\MPL\AUX_\YES_NO.HPP
D:\SOURCE\BOOST_1_61_0\BOOST\MPL\AUX_\CONFIG\ARRAYS.HPP
D:\SOURCE\BOOST_1_61_0\BOOST\MPL\AUX_\CONFIG\HAS_XXX.HPP
D:\SOURCE\BOOST_1_61_0\BOOST\MPL\AUX_\CONFIG\MSVC_TYPENAME.HPP
D:\SOURCE\BOOST_1_61_0\BOOST\PREPROCESSOR\ARRAY\ELEM.HPP
D:\SOURCE\BOOST_1_61_0\BOOST\PREPROCESSOR\ARRAY\DATA.HPP
D:\SOURCE\BOOST_1_61_0\BOOST\PREPROCESSOR\ARRAY\SIZE.HPP
D:\SOURCE\BOOST_1_61_0\BOOST\PREPROCESSOR\REPETITION\ENUM_PARAMS.HPP
D:\SOURCE\BOOST_1_61_0\BOOST\PREPROCESSOR\REPETITION\ENUM_TRAILING_PARAMS.HPP
D:\SOURCE\BOOST_1_61_0\BOOST\TYPE_TRAITS\REMOVE_REFERENCE.HPP
D:\SOURCE\BOOST_1_61_0\BOOST\ITERATOR\ITERATOR_TRAITS.HPP
D:\SOURCE\BOOST_1_61_0\BOOST\DETAIL\ITERATOR.HPP
D:\SOURCE\BOOST_1_61_0\BOOST\RANGE\DETAIL\MSVC_HAS_ITERATOR_WORKAROUND.HPP
D:\SOURCE\BOOST_1_61_0\BOOST\RANGE\CONST_ITERATOR.HPP
D:\SOURCE\BOOST_1_61_0\BOOST\TYPE_TRAITS\REMOVE_CONST.HPP
D:\SOURCE\BOOST_1_61_0\BOOST\TYPE_TRAITS\IS_CONST.HPP
D:\SOURCE\BOOST_1_61_0\BOOST\TYPE_TRAITS\INTEGRAL_CONSTANT.HPP
D:\SOURCE\BOOST_1_61_0\BOOST\MPL\EVAL_IF.HPP
D:\SOURCE\BOOST_1_61_0\BOOST\MPL\IF.HPP
D:\SOURCE\BOOST_1_61_0\BOOST\MPL\AUX_\VALUE_WKND.HPP
D:\SOURCE\BOOST_1_61_0\BOOST\MPL\AUX_\CONFIG\INTEGRAL.HPP
D:\SOURCE\BOOST_1_61_0\BOOST\MPL\AUX_\LAMBDA_SUPPORT.HPP
D:\SOURCE\BOOST_1_61_0\BOOST\RANGE\END.HPP
D:\SOURCE\BOOST_1_61_0\BOOST\RANGE\DETAIL\IMPLEMENTATION_HELP.HPP
D:\SOURCE\BOOST_1_61_0\BOOST\RANGE\DETAIL\COMMON.HPP
D:\SOURCE\BOOST_1_61_0\BOOST\RANGE\DETAIL\SFINAE.HPP
D:\SOURCE\BOOST_1_61_0\BOOST\TYPE_TRAITS\IS_ARRAY.HPP
D:\SOURCE\BOOST_1_61_0\BOOST\TYPE_TRAITS\DETAIL\YES_NO_TYPE.HPP
D:\SOURCE\BOOST_1_61_0\BOOST\TYPE_TRAITS\IS_VOID.HPP
D:\SOURCE\BOOST_1_61_0\BOOST\MPL\OR.HPP
D:\SOURCE\BOOST_1_61_0\BOOST\MPL\AUX_\CONFIG\USE_PREPROCESSED.HPP
D:\SOURCE\BOOST_1_61_0\BOOST\MPL\AUX_\NESTED_TYPE_WKND.HPP
D:\SOURCE\BOOST_1_61_0\BOOST\MPL\AUX_\INCLUDE_PREPROCESSED.HPP
D:\SOURCE\BOOST_1_61_0\BOOST\MPL\AUX_\CONFIG\COMPILER.HPP
D:\SOURCE\BOOST_1_61_0\BOOST\PREPROCESSOR\STRINGIZE.HPP
D:\SOURCE\BOOST_1_61_0\BOOST\MPL\AUX_\PREPROCESSED\PLAIN\OR.HPP
D:\SOURCE\BOOST_1_61_0\BOOST\TYPE_TRAITS\IS_SAME.HPP
D:\SOURCE\BOOST_1_61_0\BOOST\RANGE\AS_LITERAL.HPP
D:\SOURCE\BOOST_1_61_0\BOOST\RANGE\ITERATOR_RANGE.HPP
D:\SOURCE\BOOST_1_61_0\BOOST\RANGE\ITERATOR_RANGE_CORE.HPP
D:\SOURCE\BOOST_1_61_0\BOOST\ASSERT.HPP
D:\SOURCE\BOOST_1_61_0\BOOST\ITERATOR\ITERATOR_FACADE.HPP
D:\SOURCE\BOOST_1_61_0\BOOST\ITERATOR.HPP
D:\SOURCE\BOOST_1_61_0\BOOST\ITERATOR\INTEROPERABLE.HPP
D:\SOURCE\BOOST_1_61_0\BOOST\TYPE_TRAITS\IS_CONVERTIBLE.HPP
D:\SOURCE\BOOST_1_61_0\BOOST\TYPE_TRAITS\INTRINSICS.HPP
D:\SOURCE\BOOST_1_61_0\BOOST\TYPE_TRAITS\DETAIL\CONFIG.HPP
D:\SOURCE\BOOST_1_61_0\BOOST\VERSION.HPP
D:\SOURCE\BOOST_1_61_0\BOOST\TYPE_TRAITS\IS_FUNCTION.HPP
D:\SOURCE\BOOST_1_61_0\BOOST\TYPE_TRAITS\IS_REFERENCE.HPP
D:\SOURCE\BOOST_1_61_0\BOOST\TYPE_TRAITS\IS_LVALUE_REFERENCE.HPP
D:\SOURCE\BOOST_1_61_0\BOOST\TYPE_TRAITS\IS_RVALUE_REFERENCE.HPP
D:\SOURCE\BOOST_1_61_0\BOOST\TYPE_TRAITS\DETAIL\IS_FUNCTION_PTR_TESTER.HPP
D:\SOURCE\BOOST_1_61_0\BOOST\ITERATOR\DETAIL\CONFIG_DEF.HPP
D:\SOURCE\BOOST_1_61_0\BOOST\ITERATOR\DETAIL\CONFIG_UNDEF.HPP
D:\SOURCE\BOOST_1_61_0\BOOST\ITERATOR\ITERATOR_CATEGORIES.HPP
D:\SOURCE\BOOST_1_61_0\BOOST\MPL\IDENTITY.HPP
D:\SOURCE\BOOST_1_61_0\BOOST\MPL\PLACEHOLDERS.HPP
D:\SOURCE\BOOST_1_61_0\BOOST\MPL\ARG.HPP
D:\SOURCE\BOOST_1_61_0\BOOST\MPL\ARG_FWD.HPP
D:\SOURCE\BOOST_1_61_0\BOOST\MPL\AUX_\NA_ASSERT.HPP
D:\SOURCE\BOOST_1_61_0\BOOST\MPL\ASSERT.HPP
D:\SOURCE\BOOST_1_61_0\BOOST\MPL\NOT.HPP
D:\SOURCE\BOOST_1_61_0\BOOST\MPL\AUX_\CONFIG\GPU.HPP
D:\SOURCE\BOOST_1_61_0\BOOST\MPL\AUX_\CONFIG\PP_COUNTER.HPP
D:\SOURCE\BOOST_1_61_0\BOOST\MPL\AUX_\ARITY_SPEC.HPP
D:\SOURCE\BOOST_1_61_0\BOOST\MPL\AUX_\ARG_TYPEDEF.HPP
D:\SOURCE\BOOST_1_61_0\BOOST\MPL\AUX_\PREPROCESSED\PLAIN\ARG.HPP
D:\SOURCE\BOOST_1_61_0\BOOST\MPL\AUX_\PREPROCESSED\PLAIN\PLACEHOLDERS.HPP
D:\SOURCE\BOOST_1_61_0\BOOST\STATIC_ASSERT.HPP
D:\SOURCE\BOOST_1_61_0\BOOST\ITERATOR\DETAIL\FACADE_ITERATOR_CATEGORY.HPP
D:\SOURCE\BOOST_1_61_0\BOOST\MPL\AND.HPP
D:\SOURCE\BOOST_1_61_0\BOOST\MPL\AUX_\PREPROCESSED\PLAIN\AND.HPP
D:\SOURCE\BOOST_1_61_0\BOOST\DETAIL\INDIRECT_TRAITS.HPP
D:\SOURCE\BOOST_1_61_0\BOOST\TYPE_TRAITS\IS_POINTER.HPP
D:\SOURCE\BOOST_1_61_0\BOOST\TYPE_TRAITS\IS_CLASS.HPP
D:\SOURCE\BOOST_1_61_0\BOOST\TYPE_TRAITS\IS_VOLATILE.HPP
D:\SOURCE\BOOST_1_61_0\BOOST\TYPE_TRAITS\IS_MEMBER_FUNCTION_POINTER.HPP
D:\SOURCE\BOOST_1_61_0\BOOST\TYPE_TRAITS\DETAIL\IS_MEM_FUN_POINTER_TESTER.HPP
D:\SOURCE\BOOST_1_61_0\BOOST\TYPE_TRAITS\IS_MEMBER_POINTER.HPP
D:\SOURCE\BOOST_1_61_0\BOOST\TYPE_TRAITS\REMOVE_CV.HPP
D:\SOURCE\BOOST_1_61_0\BOOST\TYPE_TRAITS\REMOVE_POINTER.HPP
D:\SOURCE\BOOST_1_61_0\BOOST\ITERATOR\DETAIL\ENABLE_IF.HPP
D:\SOURCE\BOOST_1_61_0\BOOST\UTILITY\ADDRESSOF.HPP
D:\SOURCE\BOOST_1_61_0\BOOST\CORE\ADDRESSOF.HPP
D:\SOURCE\BOOST_1_61_0\BOOST\TYPE_TRAITS\ADD_CONST.HPP
D:\SOURCE\BOOST_1_61_0\BOOST\TYPE_TRAITS\ADD_POINTER.HPP
D:\SOURCE\BOOST_1_61_0\BOOST\TYPE_TRAITS\ADD_LVALUE_REFERENCE.HPP
D:\SOURCE\BOOST_1_61_0\BOOST\TYPE_TRAITS\ADD_REFERENCE.HPP
D:\SOURCE\BOOST_1_61_0\BOOST\TYPE_TRAITS\IS_POD.HPP
D:\SOURCE\BOOST_1_61_0\BOOST\TYPE_TRAITS\IS_SCALAR.HPP
D:\SOURCE\BOOST_1_61_0\BOOST\TYPE_TRAITS\IS_ARITHMETIC.HPP
D:\SOURCE\BOOST_1_61_0\BOOST\TYPE_TRAITS\IS_INTEGRAL.HPP
D:\SOURCE\BOOST_1_61_0\BOOST\TYPE_TRAITS\IS_FLOATING_POINT.HPP
D:\SOURCE\BOOST_1_61_0\BOOST\TYPE_TRAITS\IS_ENUM.HPP
D:\SOURCE\BOOST_1_61_0\BOOST\MPL\ALWAYS.HPP
D:\SOURCE\BOOST_1_61_0\BOOST\MPL\AUX_\PREPROCESSOR\DEFAULT_PARAMS.HPP
D:\SOURCE\BOOST_1_61_0\BOOST\MPL\APPLY.HPP
D:\SOURCE\BOOST_1_61_0\BOOST\MPL\APPLY_FWD.HPP
D:\SOURCE\BOOST_1_61_0\BOOST\MPL\AUX_\PREPROCESSED\PLAIN\APPLY_FWD.HPP
D:\SOURCE\BOOST_1_61_0\BOOST\MPL\APPLY_WRAP.HPP
D:\SOURCE\BOOST_1_61_0\BOOST\MPL\AUX_\HAS_APPLY.HPP
D:\SOURCE\BOOST_1_61_0\BOOST\MPL\AUX_\CONFIG\HAS_APPLY.HPP
D:\SOURCE\BOOST_1_61_0\BOOST\MPL\AUX_\MSVC_NEVER_TRUE.HPP
D:\SOURCE\BOOST_1_61_0\BOOST\MPL\AUX_\PREPROCESSED\PLAIN\APPLY_WRAP.HPP
D:\SOURCE\BOOST_1_61_0\BOOST\MPL\LAMBDA.HPP
D:\SOURCE\BOOST_1_61_0\BOOST\MPL\BIND.HPP
D:\SOURCE\BOOST_1_61_0\BOOST\MPL\BIND_FWD.HPP
D:\SOURCE\BOOST_1_61_0\BOOST\MPL\AUX_\CONFIG\BIND.HPP
D:\SOURCE\BOOST_1_61_0\BOOST\MPL\AUX_\PREPROCESSED\PLAIN\BIND_FWD.HPP
D:\SOURCE\BOOST_1_61_0\BOOST\MPL\NEXT.HPP
D:\SOURCE\BOOST_1_61_0\BOOST\MPL\NEXT_PRIOR.HPP
D:\SOURCE\BOOST_1_61_0\BOOST\MPL\AUX_\COMMON_NAME_WKND.HPP
D:\SOURCE\BOOST_1_61_0\BOOST\MPL\PROTECT.HPP
D:\SOURCE\BOOST_1_61_0\BOOST\MPL\AUX_\PREPROCESSED\PLAIN\BIND.HPP
D:\SOURCE\BOOST_1_61_0\BOOST\MPL\AUX_\FULL_LAMBDA.HPP
D:\SOURCE\BOOST_1_61_0\BOOST\MPL\QUOTE.HPP
D:\SOURCE\BOOST_1_61_0\BOOST\MPL\VOID.HPP
D:\SOURCE\BOOST_1_61_0\BOOST\MPL\AUX_\HAS_TYPE.HPP
D:\SOURCE\BOOST_1_61_0\BOOST\MPL\AUX_\CONFIG\BCC.HPP
D:\SOURCE\BOOST_1_61_0\BOOST\MPL\AUX_\PREPROCESSED\PLAIN\QUOTE.HPP
D:\SOURCE\BOOST_1_61_0\BOOST\MPL\AUX_\TEMPLATE_ARITY.HPP
D:\SOURCE\BOOST_1_61_0\BOOST\MPL\AUX_\PREPROCESSED\PLAIN\TEMPLATE_ARITY.HPP
D:\SOURCE\BOOST_1_61_0\BOOST\MPL\AUX_\PREPROCESSED\PLAIN\FULL_LAMBDA.HPP
D:\SOURCE\BOOST_1_61_0\BOOST\MPL\AUX_\PREPROCESSED\PLAIN\APPLY.HPP
D:\SOURCE\BOOST_1_61_0\BOOST\TYPE_TRAITS\IS_ABSTRACT.HPP
D:\SOURCE\BOOST_1_61_0\BOOST\TYPE_TRAITS\IS_BASE_AND_DERIVED.HPP
D:\SOURCE\BOOST_1_61_0\BOOST\RANGE\FUNCTIONS.HPP
D:\SOURCE\BOOST_1_61_0\BOOST\RANGE\SIZE.HPP
D:\SOURCE\BOOST_1_61_0\BOOST\RANGE\SIZE_TYPE.HPP
D:\SOURCE\BOOST_1_61_0\BOOST\RANGE\DIFFERENCE_TYPE.HPP
D:\SOURCE\BOOST_1_61_0\BOOST\RANGE\HAS_RANGE_ITERATOR.HPP
D:\SOURCE\BOOST_1_61_0\BOOST\UTILITY\ENABLE_IF.HPP
D:\SOURCE\BOOST_1_61_0\BOOST\CORE\ENABLE_IF.HPP
D:\SOURCE\BOOST_1_61_0\BOOST\RANGE\CONCEPTS.HPP
D:\SOURCE\BOOST_1_61_0\BOOST\CONCEPT_CHECK.HPP
D:\SOURCE\BOOST_1_61_0\BOOST\CONCEPT\ASSERT.HPP
D:\SOURCE\BOOST_1_61_0\BOOST\CONCEPT\DETAIL\MSVC.HPP
D:\SOURCE\BOOST_1_61_0\BOOST\CONCEPT\DETAIL\BACKWARD_COMPATIBILITY.HPP
D:\SOURCE\BOOST_1_61_0\BOOST\CONCEPT\DETAIL\HAS_CONSTRAINTS.HPP
D:\SOURCE\BOOST_1_61_0\BOOST\TYPE_TRAITS\CONVERSION_TRAITS.HPP
D:\SOURCE\BOOST_1_61_0\BOOST\CONCEPT\USAGE.HPP
D:\SOURCE\BOOST_1_61_0\BOOST\CONCEPT\DETAIL\CONCEPT_DEF.HPP
D:\SOURCE\BOOST_1_61_0\BOOST\PREPROCESSOR\SEQ\FOR_EACH_I.HPP
D:\SOURCE\BOOST_1_61_0\BOOST\PREPROCESSOR\REPETITION\FOR.HPP
D:\SOURCE\BOOST_1_61_0\BOOST\PREPROCESSOR\REPETITION\DETAIL\MSVC\FOR.HPP
D:\SOURCE\BOOST_1_61_0\BOOST\PREPROCESSOR\SEQ\SEQ.HPP
D:\SOURCE\BOOST_1_61_0\BOOST\PREPROCESSOR\SEQ\ELEM.HPP
D:\SOURCE\BOOST_1_61_0\BOOST\PREPROCESSOR\SEQ\SIZE.HPP
D:\SOURCE\BOOST_1_61_0\BOOST\PREPROCESSOR\SEQ\DETAIL\IS_EMPTY.HPP
D:\SOURCE\BOOST_1_61_0\BOOST\PREPROCESSOR\SEQ\ENUM.HPP
D:\SOURCE\BOOST_1_61_0\BOOST\CONCEPT\DETAIL\CONCEPT_UNDEF.HPP
D:\SOURCE\BOOST_1_61_0\BOOST\ITERATOR\ITERATOR_CONCEPTS.HPP
D:\SOURCE\BOOST_1_61_0\BOOST\LIMITS.HPP
D:\SOURCE\BOOST_1_61_0\BOOST\RANGE\VALUE_TYPE.HPP
D:\SOURCE\BOOST_1_61_0\BOOST\RANGE\DETAIL\MISC_CONCEPT.HPP
D:\SOURCE\BOOST_1_61_0\BOOST\TYPE_TRAITS\MAKE_UNSIGNED.HPP
D:\SOURCE\BOOST_1_61_0\BOOST\TYPE_TRAITS\CONDITIONAL.HPP
D:\SOURCE\BOOST_1_61_0\BOOST\TYPE_TRAITS\IS_SIGNED.HPP
D:\SOURCE\BOOST_1_61_0\BOOST\TYPE_TRAITS\IS_UNSIGNED.HPP
D:\SOURCE\BOOST_1_61_0\BOOST\TYPE_TRAITS\ADD_VOLATILE.HPP
D:\SOURCE\BOOST_1_61_0\BOOST\RANGE\DETAIL\HAS_MEMBER_SIZE.HPP
D:\SOURCE\BOOST_1_61_0\BOOST\CSTDINT.HPP
D:\SOURCE\BOOST_1_61_0\BOOST\UTILITY.HPP
D:\SOURCE\BOOST_1_61_0\BOOST\UTILITY\BASE_FROM_MEMBER.HPP
D:\SOURCE\BOOST_1_61_0\BOOST\PREPROCESSOR\REPETITION\ENUM_BINARY_PARAMS.HPP
D:\SOURCE\BOOST_1_61_0\BOOST\PREPROCESSOR\REPETITION\REPEAT_FROM_TO.HPP
D:\SOURCE\BOOST_1_61_0\BOOST\UTILITY\BINARY.HPP
D:\SOURCE\BOOST_1_61_0\BOOST\PREPROCESSOR\CONTROL\DEDUCE_D.HPP
D:\SOURCE\BOOST_1_61_0\BOOST\PREPROCESSOR\SEQ\CAT.HPP
D:\SOURCE\BOOST_1_61_0\BOOST\PREPROCESSOR\SEQ\FOLD_LEFT.HPP
D:\SOURCE\BOOST_1_61_0\BOOST\PREPROCESSOR\SEQ\TRANSFORM.HPP
D:\SOURCE\BOOST_1_61_0\BOOST\PREPROCESSOR\ARITHMETIC\MOD.HPP
D:\SOURCE\BOOST_1_61_0\BOOST\PREPROCESSOR\ARITHMETIC\DETAIL\DIV_BASE.HPP
D:\SOURCE\BOOST_1_61_0\BOOST\PREPROCESSOR\COMPARISON\LESS_EQUAL.HPP
D:\SOURCE\BOOST_1_61_0\BOOST\PREPROCESSOR\LOGICAL\NOT.HPP
D:\SOURCE\BOOST_1_61_0\BOOST\UTILITY\IDENTITY_TYPE.HPP
D:\SOURCE\BOOST_1_61_0\BOOST\TYPE_TRAITS\FUNCTION_TRAITS.HPP
D:\SOURCE\BOOST_1_61_0\BOOST\CHECKED_DELETE.HPP
D:\SOURCE\BOOST_1_61_0\BOOST\CORE\CHECKED_DELETE.HPP
D:\SOURCE\BOOST_1_61_0\BOOST\NEXT_PRIOR.HPP
D:\SOURCE\BOOST_1_61_0\BOOST\TYPE_TRAITS\INTEGRAL_PROMOTION.HPP
D:\SOURCE\BOOST_1_61_0\BOOST\TYPE_TRAITS\MAKE_SIGNED.HPP
D:\SOURCE\BOOST_1_61_0\BOOST\TYPE_TRAITS\HAS_PLUS.HPP
D:\SOURCE\BOOST_1_61_0\BOOST\TYPE_TRAITS\DETAIL\HAS_BINARY_OPERATOR.HPP
D:\SOURCE\BOOST_1_61_0\BOOST\TYPE_TRAITS\IS_BASE_OF.HPP
D:\SOURCE\BOOST_1_61_0\BOOST\TYPE_TRAITS\IS_FUNDAMENTAL.HPP
D:\SOURCE\BOOST_1_61_0\BOOST\TYPE_TRAITS\HAS_PLUS_ASSIGN.HPP
D:\SOURCE\BOOST_1_61_0\BOOST\TYPE_TRAITS\HAS_MINUS.HPP
D:\SOURCE\BOOST_1_61_0\BOOST\TYPE_TRAITS\HAS_MINUS_ASSIGN.HPP
D:\SOURCE\BOOST_1_61_0\BOOST\NONCOPYABLE.HPP
D:\SOURCE\BOOST_1_61_0\BOOST\CORE\NONCOPYABLE.HPP
D:\SOURCE\BOOST_1_61_0\BOOST\RANGE\DISTANCE.HPP
D:\SOURCE\BOOST_1_61_0\BOOST\RANGE\EMPTY.HPP
D:\SOURCE\BOOST_1_61_0\BOOST\RANGE\RBEGIN.HPP
D:\SOURCE\BOOST_1_61_0\BOOST\RANGE\REVERSE_ITERATOR.HPP
D:\SOURCE\BOOST_1_61_0\BOOST\ITERATOR\REVERSE_ITERATOR.HPP
D:\SOURCE\BOOST_1_61_0\BOOST\ITERATOR\ITERATOR_ADAPTOR.HPP
D:\SOURCE\BOOST_1_61_0\BOOST\RANGE\REND.HPP
D:\SOURCE\BOOST_1_61_0\BOOST\RANGE\ALGORITHM\EQUAL.HPP
D:\SOURCE\BOOST_1_61_0\BOOST\RANGE\DETAIL\SAFE_BOOL.HPP
D:\SOURCE\BOOST_1_61_0\BOOST\RANGE\ITERATOR_RANGE_IO.HPP
D:\SOURCE\BOOST_1_61_0\BOOST\RANGE\DETAIL\STR_TYPES.HPP
D:\SOURCE\BOOST_1_61_0\BOOST\ALGORITHM\STRING\DETAIL\TRIM.HPP
D:\SOURCE\BOOST_1_61_0\BOOST\ALGORITHM\STRING\CLASSIFICATION.HPP
D:\SOURCE\BOOST_1_61_0\BOOST\ALGORITHM\STRING\DETAIL\CLASSIFICATION.HPP
C:\PROGRAM FILES (X86)\MICROSOFT VISUAL STUDIO\2019\COMMUNITY\VC\TOOLS\MSVC\14.23.28105\INCLUDE\FUNCTIONAL
D:\SOURCE\BOOST_1_61_0\BOOST\ALGORITHM\STRING\PREDICATE_FACADE.HPP
D:\SOURCE\BOOST_1_61_0\BOOST\ALGORITHM\STRING\CASE_CONV.HPP
D:\SOURCE\BOOST_1_61_0\BOOST\ITERATOR\TRANSFORM_ITERATOR.HPP
D:\SOURCE\BOOST_1_61_0\BOOST\UTILITY\RESULT_OF.HPP
D:\SOURCE\BOOST_1_61_0\BOOST\PREPROCESSOR\ITERATION\ITERATE.HPP
D:\SOURCE\BOOST_1_61_0\BOOST\PREPROCESSOR\SLOT\SLOT.HPP
D:\SOURCE\BOOST_1_61_0\BOOST\PREPROCESSOR\SLOT\DETAIL\DEF.HPP
D:\SOURCE\BOOST_1_61_0\BOOST\PREPROCESSOR\REPETITION\ENUM_SHIFTED_PARAMS.HPP
D:\SOURCE\BOOST_1_61_0\BOOST\PREPROCESSOR\FACILITIES\INTERCEPT.HPP
D:\SOURCE\BOOST_1_61_0\BOOST\UTILITY\DECLVAL.HPP
D:\SOURCE\BOOST_1_61_0\BOOST\TYPE_TRAITS\DECLVAL.HPP
D:\SOURCE\BOOST_1_61_0\BOOST\TYPE_TRAITS\ADD_RVALUE_REFERENCE.HPP
D:\SOURCE\BOOST_1_61_0\BOOST\PREPROCESSOR\ITERATION\DETAIL\ITER\FORWARD1.HPP
D:\SOURCE\BOOST_1_61_0\BOOST\PREPROCESSOR\ITERATION\DETAIL\BOUNDS\LOWER1.HPP
D:\SOURCE\BOOST_1_61_0\BOOST\PREPROCESSOR\SLOT\DETAIL\SHARED.HPP
D:\SOURCE\BOOST_1_61_0\BOOST\PREPROCESSOR\ITERATION\DETAIL\BOUNDS\UPPER1.HPP
D:\SOURCE\BOOST_1_61_0\BOOST\UTILITY\DETAIL\RESULT_OF_ITERATE.HPP
D:\SOURCE\BOOST_1_61_0\BOOST\ALGORITHM\STRING\DETAIL\CASE_CONV.HPP
D:\SOURCE\BOOST_1_61_0\BOOST\ALGORITHM\STRING\PREDICATE.HPP
D:\SOURCE\BOOST_1_61_0\BOOST\ALGORITHM\STRING\COMPARE.HPP
D:\SOURCE\BOOST_1_61_0\BOOST\ALGORITHM\STRING\FIND.HPP
D:\SOURCE\BOOST_1_61_0\BOOST\ALGORITHM\STRING\FINDER.HPP
D:\SOURCE\BOOST_1_61_0\BOOST\ALGORITHM\STRING\CONSTANTS.HPP
D:\SOURCE\BOOST_1_61_0\BOOST\ALGORITHM\STRING\DETAIL\FINDER.HPP
D:\SOURCE\BOOST_1_61_0\BOOST\ALGORITHM\STRING\DETAIL\PREDICATE.HPP
D:\SOURCE\BOOST_1_61_0\BOOST\ALGORITHM\STRING\SPLIT.HPP
D:\SOURCE\BOOST_1_61_0\BOOST\ALGORITHM\STRING\ITER_FIND.HPP
D:\SOURCE\BOOST_1_61_0\BOOST\ALGORITHM\STRING\CONCEPT.HPP
D:\SOURCE\BOOST_1_61_0\BOOST\ALGORITHM\STRING\FIND_ITERATOR.HPP
D:\SOURCE\BOOST_1_61_0\BOOST\ALGORITHM\STRING\DETAIL\FIND_ITERATOR.HPP
D:\SOURCE\BOOST_1_61_0\BOOST\FUNCTION.HPP
D:\SOURCE\BOOST_1_61_0\BOOST\PREPROCESSOR\ITERATE.HPP
D:\SOURCE\BOOST_1_61_0\BOOST\FUNCTION\DETAIL\PROLOGUE.HPP
C:\PROGRAM FILES (X86)\MICROSOFT VISUAL STUDIO\2019\COMMUNITY\VC\TOOLS\MSVC\14.23.28105\INCLUDE\CASSERT
D:\SOURCE\BOOST_1_61_0\BOOST\CONFIG\NO_TR1\FUNCTIONAL.HPP
D:\SOURCE\BOOST_1_61_0\BOOST\THROW_EXCEPTION.HPP
D:\SOURCE\BOOST_1_61_0\BOOST\EXCEPTION\EXCEPTION.HPP
D:\SOURCE\BOOST_1_61_0\BOOST\CURRENT_FUNCTION.HPP
D:\SOURCE\BOOST_1_61_0\BOOST\FUNCTION\FUNCTION_BASE.HPP
D:\SOURCE\BOOST_1_61_0\BOOST\DETAIL\SP_TYPEINFO.HPP
D:\SOURCE\BOOST_1_61_0\BOOST\CORE\TYPEINFO.HPP
D:\SOURCE\BOOST_1_61_0\BOOST\CORE\DEMANGLE.HPP
D:\SOURCE\BOOST_1_61_0\BOOST\INTEGER.HPP
D:\SOURCE\BOOST_1_61_0\BOOST\INTEGER_FWD.HPP
D:\SOURCE\BOOST_1_61_0\BOOST\INTEGER_TRAITS.HPP
D:\SOURCE\BOOST_1_61_0\BOOST\TYPE_TRAITS\HAS_TRIVIAL_COPY.HPP
D:\SOURCE\BOOST_1_61_0\BOOST\TYPE_TRAITS\HAS_TRIVIAL_DESTRUCTOR.HPP
D:\SOURCE\BOOST_1_61_0\BOOST\TYPE_TRAITS\COMPOSITE_TRAITS.HPP
D:\SOURCE\BOOST_1_61_0\BOOST\TYPE_TRAITS\IS_UNION.HPP
D:\SOURCE\BOOST_1_61_0\BOOST\REF.HPP
D:\SOURCE\BOOST_1_61_0\BOOST\CORE\REF.HPP
D:\SOURCE\BOOST_1_61_0\BOOST\TYPE_TRAITS\ALIGNMENT_OF.HPP
D:\SOURCE\BOOST_1_61_0\BOOST\FUNCTION_EQUAL.HPP
D:\SOURCE\BOOST_1_61_0\BOOST\FUNCTION\FUNCTION_FWD.HPP
D:\SOURCE\BOOST_1_61_0\BOOST\MEM_FN.HPP
D:\SOURCE\BOOST_1_61_0\BOOST\BIND\MEM_FN.HPP
D:\SOURCE\BOOST_1_61_0\BOOST\GET_POINTER.HPP
D:\SOURCE\BOOST_1_61_0\BOOST\CONFIG\NO_TR1\MEMORY.HPP
D:\SOURCE\BOOST_1_61_0\BOOST\BIND\MEM_FN_TEMPLATE.HPP
D:\SOURCE\BOOST_1_61_0\BOOST\BIND\MEM_FN_CC.HPP
D:\SOURCE\BOOST_1_61_0\BOOST\PREPROCESSOR\ENUM.HPP
D:\SOURCE\BOOST_1_61_0\BOOST\PREPROCESSOR\REPETITION\ENUM.HPP
D:\SOURCE\BOOST_1_61_0\BOOST\PREPROCESSOR\ENUM_PARAMS.HPP
D:\SOURCE\BOOST_1_61_0\BOOST\FUNCTION\DETAIL\FUNCTION_ITERATE.HPP
D:\SOURCE\BOOST_1_61_0\BOOST\FUNCTION\DETAIL\MAYBE_INCLUDE.HPP
D:\SOURCE\BOOST_1_61_0\BOOST\FUNCTION\FUNCTION_TEMPLATE.HPP
D:\SOURCE\BOOST_1_61_0\BOOST\DETAIL\NO_EXCEPTIONS_SUPPORT.HPP
D:\SOURCE\BOOST_1_61_0\BOOST\CORE\NO_EXCEPTIONS_SUPPORT.HPP
D:\SOURCE\BOOST_1_61_0\BOOST\MOVE\UTILITY_CORE.HPP
D:\SOURCE\BOOST_1_61_0\BOOST\MOVE\DETAIL\CONFIG_BEGIN.HPP
D:\SOURCE\BOOST_1_61_0\BOOST\MOVE\DETAIL\WORKAROUND.HPP
D:\SOURCE\BOOST_1_61_0\BOOST\MOVE\CORE.HPP
D:\SOURCE\BOOST_1_61_0\BOOST\MOVE\DETAIL\CONFIG_END.HPP
D:\SOURCE\BOOST_1_61_0\BOOST\MOVE\DETAIL\META_UTILS.HPP
D:\SOURCE\BOOST_1_61_0\BOOST\MOVE\DETAIL\META_UTILS_CORE.HPP
D:\SOURCE\BOOST_1_61_0\BOOST\ALGORITHM\STRING\DETAIL\UTIL.HPP
D:\SOURCE\BOOST_1_61_0\BOOST\ALGORITHM\STRING\JOIN.HPP
D:\SOURCE\BOOST_1_61_0\BOOST\ALGORITHM\STRING\DETAIL\SEQUENCE.HPP
D:\SOURCE\BOOST_1_61_0\BOOST\MPL\LOGICAL.HPP
D:\SOURCE\BOOST_1_61_0\BOOST\ALGORITHM\STRING\REPLACE.HPP
D:\SOURCE\BOOST_1_61_0\BOOST\ALGORITHM\STRING\FIND_FORMAT.HPP
C:\PROGRAM FILES (X86)\MICROSOFT VISUAL STUDIO\2019\COMMUNITY\VC\TOOLS\MSVC\14.23.28105\INCLUDE\DEQUE
D:\SOURCE\BOOST_1_61_0\BOOST\ALGORITHM\STRING\DETAIL\FIND_FORMAT.HPP
D:\SOURCE\BOOST_1_61_0\BOOST\ALGORITHM\STRING\DETAIL\FIND_FORMAT_STORE.HPP
D:\SOURCE\BOOST_1_61_0\BOOST\ALGORITHM\STRING\DETAIL\REPLACE_STORAGE.HPP
D:\SOURCE\BOOST_1_61_0\BOOST\ALGORITHM\STRING\DETAIL\FIND_FORMAT_ALL.HPP
D:\SOURCE\BOOST_1_61_0\BOOST\ALGORITHM\STRING\FORMATTER.HPP
D:\SOURCE\BOOST_1_61_0\BOOST\ALGORITHM\STRING\DETAIL\FORMATTER.HPP
D:\SOURCE\BOOST_1_61_0\BOOST\ALGORITHM\STRING\ERASE.HPP
^C:\PROJECTS\CPP\STOMICSIMPOZIJ\STOMICSIMPOZIJ\SRC\MAIN.CPP
C:\PROGRAM FILES (X86)\MICROSOFT VISUAL STUDIO\2019\COMMUNITY\VC\TOOLS\MSVC\14.23.28105\BIN\HOSTX86\X64\1033\CLUI.DLL
C:\WINDOWS\GLOBALIZATION\SORTING\SORTDEFAULT.NLS
C:\PROJECTS\CPP\UTIL\INCLUDE\GENETIC_ALGORITHM\GENERAL_GA.H
C:\PROJECTS\CPP\UTIL\INCLUDE\GENETIC_ALGORITHM\GENETIC_ALGORITHM.H
C:\PROGRAM FILES (X86)\MICROSOFT VISUAL STUDIO\2019\COMMUNITY\VC\TOOLS\MSVC\14.23.28105\INCLUDE\TYPE_TRAITS
C:\PROGRAM FILES (X86)\MICROSOFT VISUAL STUDIO\2019\COMMUNITY\VC\TOOLS\MSVC\14.23.28105\INCLUDE\YVALS_CORE.H
C:\PROGRAM FILES (X86)\MICROSOFT VISUAL STUDIO\2019\COMMUNITY\VC\TOOLS\MSVC\14.23.28105\INCLUDE\CRTDEFS.H
C:\PROGRAM FILES (X86)\MICROSOFT VISUAL STUDIO\2019\COMMUNITY\VC\TOOLS\MSVC\14.23.28105\INCLUDE\VCRUNTIME.H
C:\PROGRAM FILES (X86)\MICROSOFT VISUAL STUDIO\2019\COMMUNITY\VC\TOOLS\MSVC\14.23.28105\INCLUDE\SAL.H
C:\PROGRAM FILES (X86)\MICROSOFT VISUAL STUDIO\2019\COMMUNITY\VC\TOOLS\MSVC\14.23.28105\INCLUDE\CONCURRENCYSAL.H
C:\PROGRAM FILES (X86)\MICROSOFT VISUAL STUDIO\2019\COMMUNITY\VC\TOOLS\MSVC\14.23.28105\INCLUDE\VADEFS.H
C:\PROGRAM FILES (X86)\WINDOWS KITS\10\INCLUDE\10.0.18362.0\UCRT\CORECRT.H
C:\PROGRAM FILES (X86)\MICROSOFT VISUAL STUDIO\2019\COMMUNITY\VC\TOOLS\MSVC\14.23.28105\INCLUDE\XKEYCHECK.H
C:\PROGRAM FILES (X86)\MICROSOFT VISUAL STUDIO\2019\COMMUNITY\VC\TOOLS\MSVC\14.23.28105\INCLUDE\XSTDDEF
C:\PROGRAM FILES (X86)\MICROSOFT VISUAL STUDIO\2019\COMMUNITY\VC\TOOLS\MSVC\14.23.28105\INCLUDE\CSTDDEF
C:\PROGRAM FILES (X86)\WINDOWS KITS\10\INCLUDE\10.0.18362.0\UCRT\STDDEF.H
C:\PROGRAM FILES (X86)\MICROSOFT VISUAL STUDIO\2019\COMMUNITY\VC\TOOLS\MSVC\14.23.28105\INCLUDE\XTR1COMMON
C:\PROGRAM FILES (X86)\MICROSOFT VISUAL STUDIO\2019\COMMUNITY\VC\TOOLS\MSVC\14.23.28105\INCLUDE\CSTDLIB
C:\PROGRAM FILES (X86)\WINDOWS KITS\10\INCLUDE\10.0.18362.0\UCRT\MATH.H
C:\PROGRAM FILES (X86)\WINDOWS KITS\10\INCLUDE\10.0.18362.0\UCRT\CORECRT_MATH.H
C:\PROGRAM FILES (X86)\WINDOWS KITS\10\INCLUDE\10.0.18362.0\UCRT\STDLIB.H
C:\PROGRAM FILES (X86)\WINDOWS KITS\10\INCLUDE\10.0.18362.0\UCRT\CORECRT_MALLOC.H
C:\PROGRAM FILES (X86)\WINDOWS KITS\10\INCLUDE\10.0.18362.0\UCRT\CORECRT_SEARCH.H
C:\PROGRAM FILES (X86)\WINDOWS KITS\10\INCLUDE\10.0.18362.0\UCRT\CORECRT_WSTDLIB.H
C:\PROGRAM FILES (X86)\MICROSOFT VISUAL STUDIO\2019\COMMUNITY\VC\TOOLS\MSVC\14.23.28105\INCLUDE\LIMITS.H
C:\PROGRAM FILES (X86)\MICROSOFT VISUAL STUDIO\2019\COMMUNITY\VC\TOOLS\MSVC\14.23.28105\INCLUDE\INITIALIZER_LIST
C:\PROJECTS\CPP\UTIL\INCLUDE\GENETIC_ALGORITHM\SOLUTION.H
C:\PROJECTS\CPP\UTIL\INCLUDE\GENETIC_ALGORITHM\EVALUATOR.H
C:\PROGRAM FILES (X86)\MICROSOFT VISUAL STUDIO\2019\COMMUNITY\VC\TOOLS\MSVC\14.23.28105\INCLUDE\VECTOR
C:\PROGRAM FILES (X86)\MICROSOFT VISUAL STUDIO\2019\COMMUNITY\VC\TOOLS\MSVC\14.23.28105\INCLUDE\XMEMORY
C:\PROGRAM FILES (X86)\MICROSOFT VISUAL STUDIO\2019\COMMUNITY\VC\TOOLS\MSVC\14.23.28105\INCLUDE\CSTDINT
C:\PROGRAM FILES (X86)\MICROSOFT VISUAL STUDIO\2019\COMMUNITY\VC\TOOLS\MSVC\14.23.28105\INCLUDE\YVALS.H
C:\PROGRAM FILES (X86)\WINDOWS KITS\10\INCLUDE\10.0.18362.0\UCRT\CRTDBG.H
C:\PROGRAM FILES (X86)\MICROSOFT VISUAL STUDIO\2019\COMMUNITY\VC\TOOLS\MSVC\14.23.28105\INCLUDE\VCRUNTIME_NEW_DEBUG.H
C:\PROGRAM FILES (X86)\MICROSOFT VISUAL STUDIO\2019\COMMUNITY\VC\TOOLS\MSVC\14.23.28105\INCLUDE\VCRUNTIME_NEW.H
C:\PROGRAM FILES (X86)\MICROSOFT VISUAL STUDIO\2019\COMMUNITY\VC\TOOLS\MSVC\14.23.28105\INCLUDE\USE_ANSI.H
C:\PROGRAM FILES (X86)\MICROSOFT VISUAL STUDIO\2019\COMMUNITY\VC\TOOLS\MSVC\14.23.28105\INCLUDE\STDINT.H
C:\PROGRAM FILES (X86)\MICROSOFT VISUAL STUDIO\2019\COMMUNITY\VC\TOOLS\MSVC\14.23.28105\INCLUDE\LIMITS
C:\PROGRAM FILES (X86)\MICROSOFT VISUAL STUDIO\2019\COMMUNITY\VC\TOOLS\MSVC\14.23.28105\INCLUDE\CFLOAT
C:\PROGRAM FILES (X86)\WINDOWS KITS\10\INCLUDE\10.0.18362.0\UCRT\FLOAT.H
C:\PROGRAM FILES (X86)\MICROSOFT VISUAL STUDIO\2019\COMMUNITY\VC\TOOLS\MSVC\14.23.28105\INCLUDE\CLIMITS
C:\PROGRAM FILES (X86)\MICROSOFT VISUAL STUDIO\2019\COMMUNITY\VC\TOOLS\MSVC\14.23.28105\INCLUDE\CWCHAR
C:\PROGRAM FILES (X86)\MICROSOFT VISUAL STUDIO\2019\COMMUNITY\VC\TOOLS\MSVC\14.23.28105\INCLUDE\CSTDIO
C:\PROGRAM FILES (X86)\WINDOWS KITS\10\INCLUDE\10.0.18362.0\UCRT\STDIO.H
C:\PROGRAM FILES (X86)\WINDOWS KITS\10\INCLUDE\10.0.18362.0\UCRT\CORECRT_WSTDIO.H
C:\PROGRAM FILES (X86)\WINDOWS KITS\10\INCLUDE\10.0.18362.0\UCRT\CORECRT_STDIO_CONFIG.H
C:\PROGRAM FILES (X86)\WINDOWS KITS\10\INCLUDE\10.0.18362.0\UCRT\WCHAR.H
C:\PROGRAM FILES (X86)\WINDOWS KITS\10\INCLUDE\10.0.18362.0\UCRT\CORECRT_MEMCPY_S.H
C:\PROGRAM FILES (X86)\WINDOWS KITS\10\INCLUDE\10.0.18362.0\UCRT\ERRNO.H
C:\PROGRAM FILES (X86)\MICROSOFT VISUAL STUDIO\2019\COMMUNITY\VC\TOOLS\MSVC\14.23.28105\INCLUDE\VCRUNTIME_STRING.H
C:\PROGRAM FILES (X86)\WINDOWS KITS\10\INCLUDE\10.0.18362.0\UCRT\CORECRT_WCONIO.H
C:\PROGRAM FILES (X86)\WINDOWS KITS\10\INCLUDE\10.0.18362.0\UCRT\CORECRT_WCTYPE.H
C:\PROGRAM FILES (X86)\WINDOWS KITS\10\INCLUDE\10.0.18362.0\UCRT\CORECRT_WDIRECT.H
C:\PROGRAM FILES (X86)\WINDOWS KITS\10\INCLUDE\10.0.18362.0\UCRT\CORECRT_WIO.H
C:\PROGRAM FILES (X86)\WINDOWS KITS\10\INCLUDE\10.0.18362.0\UCRT\CORECRT_SHARE.H
C:\PROGRAM FILES (X86)\WINDOWS KITS\10\INCLUDE\10.0.18362.0\UCRT\CORECRT_WPROCESS.H
C:\PROGRAM FILES (X86)\WINDOWS KITS\10\INCLUDE\10.0.18362.0\UCRT\CORECRT_WSTRING.H
C:\PROGRAM FILES (X86)\WINDOWS KITS\10\INCLUDE\10.0.18362.0\UCRT\CORECRT_WTIME.H
C:\PROGRAM FILES (X86)\WINDOWS KITS\10\INCLUDE\10.0.18362.0\UCRT\SYS\STAT.H
C:\PROGRAM FILES (X86)\WINDOWS KITS\10\INCLUDE\10.0.18362.0\UCRT\SYS\TYPES.H
C:\PROGRAM FILES (X86)\MICROSOFT VISUAL STUDIO\2019\COMMUNITY\VC\TOOLS\MSVC\14.23.28105\INCLUDE\NEW
C:\PROGRAM FILES (X86)\MICROSOFT VISUAL STUDIO\2019\COMMUNITY\VC\TOOLS\MSVC\14.23.28105\INCLUDE\EXCEPTION
C:\PROGRAM FILES (X86)\WINDOWS KITS\10\INCLUDE\10.0.18362.0\UCRT\MALLOC.H
C:\PROGRAM FILES (X86)\MICROSOFT VISUAL STUDIO\2019\COMMUNITY\VC\TOOLS\MSVC\14.23.28105\INCLUDE\VCRUNTIME_EXCEPTION.H
C:\PROGRAM FILES (X86)\MICROSOFT VISUAL STUDIO\2019\COMMUNITY\VC\TOOLS\MSVC\14.23.28105\INCLUDE\EH.H
C:\PROGRAM FILES (X86)\WINDOWS KITS\10\INCLUDE\10.0.18362.0\UCRT\CORECRT_TERMINATE.H
C:\PROGRAM FILES (X86)\MICROSOFT VISUAL STUDIO\2019\COMMUNITY\VC\TOOLS\MSVC\14.23.28105\INCLUDE\XATOMIC.H
C:\PROGRAM FILES (X86)\MICROSOFT VISUAL STUDIO\2019\COMMUNITY\VC\TOOLS\MSVC\14.23.28105\INCLUDE\INTRIN0.H
C:\PROGRAM FILES (X86)\MICROSOFT VISUAL STUDIO\2019\COMMUNITY\VC\TOOLS\MSVC\14.23.28105\INCLUDE\XUTILITY
C:\PROGRAM FILES (X86)\MICROSOFT VISUAL STUDIO\2019\COMMUNITY\VC\TOOLS\MSVC\14.23.28105\INCLUDE\CSTRING
C:\PROGRAM FILES (X86)\WINDOWS KITS\10\INCLUDE\10.0.18362.0\UCRT\STRING.H
C:\PROGRAM FILES (X86)\WINDOWS KITS\10\INCLUDE\10.0.18362.0\UCRT\CORECRT_MEMORY.H
C:\PROGRAM FILES (X86)\MICROSOFT VISUAL STUDIO\2019\COMMUNITY\VC\TOOLS\MSVC\14.23.28105\INCLUDE\UTILITY
C:\PROJECTS\CPP\UTIL\INCLUDE\GENETIC_ALGORITHM\CROSSOVER.H
C:\PROJECTS\CPP\UTIL\INCLUDE\RANDOM.H
C:\PROGRAM FILES (X86)\MICROSOFT VISUAL STUDIO\2019\COMMUNITY\VC\TOOLS\MSVC\14.23.28105\INCLUDE\RANDOM
C:\PROGRAM FILES (X86)\MICROSOFT VISUAL STUDIO\2019\COMMUNITY\VC\TOOLS\MSVC\14.23.28105\INCLUDE\ALGORITHM
C:\PROGRAM FILES (X86)\MICROSOFT VISUAL STUDIO\2019\COMMUNITY\VC\TOOLS\MSVC\14.23.28105\INCLUDE\CMATH
C:\PROGRAM FILES (X86)\MICROSOFT VISUAL STUDIO\2019\COMMUNITY\VC\TOOLS\MSVC\14.23.28105\INCLUDE\XTGMATH.H
C:\PROGRAM FILES (X86)\MICROSOFT VISUAL STUDIO\2019\COMMUNITY\VC\TOOLS\MSVC\14.23.28105\INCLUDE\IOSFWD
C:\PROGRAM FILES (X86)\MICROSOFT VISUAL STUDIO\2019\COMMUNITY\VC\TOOLS\MSVC\14.23.28105\INCLUDE\XSTRING
C:\PROGRAM FILES (X86)\MICROSOFT VISUAL STUDIO\2019\COMMUNITY\VC\TOOLS\MSVC\14.23.28105\INCLUDE\CHRONO
C:\PROGRAM FILES (X86)\MICROSOFT VISUAL STUDIO\2019\COMMUNITY\VC\TOOLS\MSVC\14.23.28105\INCLUDE\RATIO
C:\PROGRAM FILES (X86)\MICROSOFT VISUAL STUDIO\2019\COMMUNITY\VC\TOOLS\MSVC\14.23.28105\INCLUDE\THR\XTIMEC.H
C:\PROGRAM FILES (X86)\WINDOWS KITS\10\INCLUDE\10.0.18362.0\UCRT\TIME.H
C:\PROJECTS\CPP\UTIL\INCLUDE\GENETIC_ALGORITHM\MUTATION.H
C:\PROJECTS\CPP\UTIL\INCLUDE\GENETIC_ALGORITHM\SELECTION.H
C:\PROGRAM FILES (X86)\WINDOWS KITS\10\INCLUDE\10.0.18362.0\UCRT\ASSERT.H
C:\PROJECTS\CPP\UTIL\INCLUDE\GENETIC_ALGORITHM\K_TOURNAMENT_SELECTION.H
C:\PROGRAM FILES (X86)\MICROSOFT VISUAL STUDIO\2019\COMMUNITY\VC\TOOLS\MSVC\14.23.28105\INCLUDE\CASSERT
C:\PROJECTS\CPP\STOMICSIMPOZIJ\STOMICSIMPOZIJ\SRC\ALGORITHM.H
C:\PROGRAM FILES (X86)\MICROSOFT VISUAL STUDIO\2019\COMMUNITY\VC\TOOLS\MSVC\14.23.28105\INCLUDE\STRING
C:\PROGRAM FILES (X86)\MICROSOFT VISUAL STUDIO\2019\COMMUNITY\VC\TOOLS\MSVC\14.23.28105\INCLUDE\CCTYPE
C:\PROGRAM FILES (X86)\WINDOWS KITS\10\INCLUDE\10.0.18362.0\UCRT\CTYPE.H
C:\PROGRAM FILES (X86)\MICROSOFT VISUAL STUDIO\2019\COMMUNITY\VC\TOOLS\MSVC\14.23.28105\INCLUDE\ARRAY
C:\PROGRAM FILES (X86)\MICROSOFT VISUAL STUDIO\2019\COMMUNITY\VC\TOOLS\MSVC\14.23.28105\INCLUDE\ITERATOR
C:\PROGRAM FILES (X86)\MICROSOFT VISUAL STUDIO\2019\COMMUNITY\VC\TOOLS\MSVC\14.23.28105\INCLUDE\ISTREAM
C:\PROGRAM FILES (X86)\MICROSOFT VISUAL STUDIO\2019\COMMUNITY\VC\TOOLS\MSVC\14.23.28105\INCLUDE\OSTREAM
C:\PROGRAM FILES (X86)\MICROSOFT VISUAL STUDIO\2019\COMMUNITY\VC\TOOLS\MSVC\14.23.28105\INCLUDE\IOS
C:\PROGRAM FILES (X86)\MICROSOFT VISUAL STUDIO\2019\COMMUNITY\VC\TOOLS\MSVC\14.23.28105\INCLUDE\XLOCNUM
C:\PROGRAM FILES (X86)\MICROSOFT VISUAL STUDIO\2019\COMMUNITY\VC\TOOLS\MSVC\14.23.28105\INCLUDE\STREAMBUF
C:\PROGRAM FILES (X86)\MICROSOFT VISUAL STUDIO\2019\COMMUNITY\VC\TOOLS\MSVC\14.23.28105\INCLUDE\XIOSBASE
C:\PROGRAM FILES (X86)\WINDOWS KITS\10\INCLUDE\10.0.18362.0\UCRT\SHARE.H
C:\PROGRAM FILES (X86)\MICROSOFT VISUAL STUDIO\2019\COMMUNITY\VC\TOOLS\MSVC\14.23.28105\INCLUDE\SYSTEM_ERROR
C:\PROGRAM FILES (X86)\MICROSOFT VISUAL STUDIO\2019\COMMUNITY\VC\TOOLS\MSVC\14.23.28105\INCLUDE\CERRNO
C:\PROGRAM FILES (X86)\MICROSOFT VISUAL STUDIO\2019\COMMUNITY\VC\TOOLS\MSVC\14.23.28105\INCLUDE\STDEXCEPT
C:\PROGRAM FILES (X86)\MICROSOFT VISUAL STUDIO\2019\COMMUNITY\VC\TOOLS\MSVC\14.23.28105\INCLUDE\XCALL_ONCE.H
C:\PROGRAM FILES (X86)\MICROSOFT VISUAL STUDIO\2019\COMMUNITY\VC\TOOLS\MSVC\14.23.28105\INCLUDE\XERRC.H
C:\PROGRAM FILES (X86)\MICROSOFT VISUAL STUDIO\2019\COMMUNITY\VC\TOOLS\MSVC\14.23.28105\INCLUDE\XLOCALE
C:\PROGRAM FILES (X86)\MICROSOFT VISUAL STUDIO\2019\COMMUNITY\VC\TOOLS\MSVC\14.23.28105\INCLUDE\MEMORY
C:\PROGRAM FILES (X86)\MICROSOFT VISUAL STUDIO\2019\COMMUNITY\VC\TOOLS\MSVC\14.23.28105\INCLUDE\TYPEINFO
C:\PROGRAM FILES (X86)\MICROSOFT VISUAL STUDIO\2019\COMMUNITY\VC\TOOLS\MSVC\14.23.28105\INCLUDE\VCRUNTIME_TYPEINFO.H
C:\PROGRAM FILES (X86)\MICROSOFT VISUAL STUDIO\2019\COMMUNITY\VC\TOOLS\MSVC\14.23.28105\INCLUDE\XFACET
C:\PROGRAM FILES (X86)\MICROSOFT VISUAL STUDIO\2019\COMMUNITY\VC\TOOLS\MSVC\14.23.28105\INCLUDE\XLOCINFO
C:\PROGRAM FILES (X86)\MICROSOFT VISUAL STUDIO\2019\COMMUNITY\VC\TOOLS\MSVC\14.23.28105\INCLUDE\XLOCINFO.H
C:\PROGRAM FILES (X86)\WINDOWS KITS\10\INCLUDE\10.0.18362.0\UCRT\LOCALE.H
C:\PROGRAM FILES (X86)\MICROSOFT VISUAL STUDIO\2019\COMMUNITY\VC\TOOLS\MSVC\14.23.28105\INCLUDE\TUPLE
C:\PROGRAM FILES (X86)\MICROSOFT VISUAL STUDIO\2019\COMMUNITY\VC\TOOLS\MSVC\14.23.28105\INCLUDE\MAP
C:\PROGRAM FILES (X86)\MICROSOFT VISUAL STUDIO\2019\COMMUNITY\VC\TOOLS\MSVC\14.23.28105\INCLUDE\XTREE
C:\PROGRAM FILES (X86)\MICROSOFT VISUAL STUDIO\2019\COMMUNITY\VC\TOOLS\MSVC\14.23.28105\INCLUDE\SET
C:\PROGRAM FILES (X86)\MICROSOFT VISUAL STUDIO\2019\COMMUNITY\VC\TOOLS\MSVC\14.23.28105\INCLUDE\IOSTREAM
C:\PROJECTS\CPP\STOMICSIMPOZIJ\STOMICSIMPOZIJ\SRC\GENETIC_OPERATORS\LAYOUT_EVALUATOR.H
C:\PROJECTS\CPP\STOMICSIMPOZIJ\STOMICSIMPOZIJ\SRC\GENETIC_OPERATORS\MUTATIONS.H
